…
    The following objects are masked from 'package:stats':

        filter, lag

    The following objects are masked from 'package:base':

        intersect, setdiff, setequal, union

``` r
vax %>% 
  group_by(as_of_date)%>%
  summarise()
```

    # A tibble: 99 × 1
       as_of_date
       <date>    
     1 2021-01-05
     2 2021-01-12
     3 2021-01-19
     4 2021-01-26
     5 2021-02-02
     6 2021-02-09
     7 2021-02-16
     8 2021-02-23
     9 2021-03-02
    10 2021-03-09
    # … with 89 more rows
…
    [1] 10593

> Q11. How many distinct zip codes are listed for San Diego County?

107

``` r
sd %>% 
  group_by(zip_code_tabulation_area)%>%
  summarise()
```

    # A tibble: 107 × 1
       zip_code_tabulation_area
                          <int>
     1                    91901
     2                    91902
     3                    91905
     4                    91906
     5                    91910
     6                    91911
     7                    91913
     8                    91914
     9                    91915
    10                    91916
    # … with 97 more rows
…
